…
data <- read_xlsx("./NOTAS.xlsx")

data$FACTOR_A <- as.factor(data$FACTOR_A)
data$FACTOR_B <- as.factor(data$FACTOR_B)
data$NOTA <- as.numeric(data$NOTA)
View(data)
```
Observando de manera más clara la tabla formateada en excel
```
# Salida
> data
# A tibble: 32 × 3
   FACTOR_A   FACTOR_B    NOTA
   <fct>      <fct>      <dbl>
 1 MATEMATICA DISTANCIA     10
 2 MATEMATICA DISTANCIA      9
 3 MATEMATICA DISTANCIA      4
 4 MATEMATICA DISTANCIA      8
 5 MATEMATICA DISTANCIA      8
 6 MATEMATICA DISTANCIA      4
 7 MATEMATICA DISTANCIA      3
 8 MATEMATICA DISTANCIA      6
 9 MATEMATICA PRESENCIAL     4
10 MATEMATICA PRESENCIAL     3
# ℹ 22 more rows
# ℹ Use `print(n = ...)` to see more rows
```
…
